1 10 20
100 200 125
201 210 89
900 1000 174
3 10 20
2 200 125
390 8182 262
489 19 144
92904 8182 351
493 5555 238
100 2000 182
3994 9990 262
1 1 1
200 21 125
1002 302 179
332 1399 182
19 391 144
48194 819299 509
391923 392911 299
3020 3485 199
59303 52 340
32901 5022 308
348676 594053 470
57381 122233 354
4537 68329 340
421 41 144
482 1 144
54893 92 340
21858 683 279
93049 689439 509
928 5949 238
88851 862 351
919458 532 525
365 345 126
65483 6493 340
69508 78 340
89650 875 351
76493 694 340
2858 828355 509
2994 354 217
33828 6969 308
9082 584390 470
283490 852 443
4582 2901 238
3910 1010 238
359 199 144
1029 19 179
294 1992 182
2 919 179
289 19459 279
19359 752 279
1952 85943 351
189 59029 340
96 694 145
28 4289 238
38421 129994 354
49483 29395 324
1935 68539 340
1864 391 182
19294 59 279
195 41235 324
56765 83534 351
99754 79594 333
9795 54 262
929 834828 509
4767 73745 340
5848 38833 324
59493 199 340
593 29921 308
3934 84 238
49392 221 324
2348 4832 238
123 12 119
653 326 145
182834 48382 383
92934 2918 351
193249 5943 383
183284 68493 383
932 3 179
29394 9493 308
84 818 171
472 21 144
9585 55 262
586 6 144
68 2 113
382 192 144
949 59 179
21 21 8
42 3 112
3421 74 217
90 95 106
868 92 171
548 58 144
43 9 112
67 868 171
319 12 131
385 591 142
402 482 134
19 385 144
458 29291 308
684 39391 324
990029 291943 525
4585884 93910 597
684 38283 324
192934 39493 383
102034 49392 351
281882 38383 443
182834 18182 383
34 32 27
442 543 142
19 27 112
392 18 144
1 7 17
3882 80 238
38 69 113
800 1001 179
488 8444 262
293 11 128
393295 5943 443
194 3929 238
103 1 119
29 293 128
403 200 144
2919 999 217
1 123 119
432 43214 324
999998 999999 259
4832 18 238
483 68 144
692 12 145
9 2 20
3 67 113
1679 91 182
238 4843 238
19 292 128
586 696 145
3929 19 238
