................
----------------------------------------------------------------------
Ran 16 tests in 11.635s

OK
Name             Stmts   Miss Branch BrPart  Cover   Missing
------------------------------------------------------------
Collatz.py          29      0     12      0   100%
TestCollatz.py      74      0      0      0   100%
------------------------------------------------------------
TOTAL              103      0     12      0   100%
