............
----------------------------------------------------------------------
Ran 12 tests in 0.025s

OK
Name             Stmts   Miss Branch BrPart  Cover   Missing
------------------------------------------------------------
Collatz.py          44      0     24      0   100%
TestCollatz.py      59      0      0      0   100%
------------------------------------------------------------
TOTAL              103      0     24      0   100%